{
	"info": {
		"_postman_id": "2b30d398-aba7-414b-a980-f09771c0510f",
		"name": "FWE-SS20",
		"schema": "https://schema.getpostman.com/json/collection/v2.1.0/collection.json"
	},
	"item": [
		{
			"name": "Transaction",
			"item": [
				{
					"name": "Get single transaction",
					"request": {
						"method": "GET",
						"header": [
							{
								"key": "Authorization",
								"value": "eyJhbGciOiJIUzI1NiIsInR5cCI6IkpXVCJ9.eyJlbWFpbCI6InRlc3RAdGVzdC5kZSIsImlkIjoiYjNhOGY3OTQtZjE3Zi00N2VlLWFkMjAtOWUzMTM0YWNkODI3IiwibmFtZSI6IkRhbmllbCIsImlhdCI6MTU4ODYyNzkwNSwiZXhwIjoxNTg4NjMxNTA1fQ.u2UwfZ4lfe5aPhJzp4JprZcHF6XgAvU5JIXNZtFDlrA",
								"type": "text"
							}
						],
						"url": {
							"raw": "http://localhost:3000/api/transaction/0e968a97-2f1e-42e6-99ee-352bf94b4e37",
							"protocol": "http",
							"host": [
								"localhost"
							],
							"port": "3000",
							"path": [
								"api",
								"transaction",
								"0e968a97-2f1e-42e6-99ee-352bf94b4e37"
							]
						}
					},
					"response": []
				},
				{
					"name": "Delete single transaction",
					"request": {
						"method": "DELETE",
						"header": [
							{
								"key": "Authorization",
								"value": "eyJhbGciOiJIUzI1NiIsInR5cCI6IkpXVCJ9.eyJlbWFpbCI6InRlc3RAdGVzdC5kZSIsImlkIjoiYjNhOGY3OTQtZjE3Zi00N2VlLWFkMjAtOWUzMTM0YWNkODI3IiwibmFtZSI6IkRhbmllbCIsImlhdCI6MTU4ODYyNzkwNSwiZXhwIjoxNTg4NjMxNTA1fQ.u2UwfZ4lfe5aPhJzp4JprZcHF6XgAvU5JIXNZtFDlrA",
								"type": "text"
							}
						],
						"url": {
							"raw": "http://localhost:3000/api/transaction/65352bb2-a3a4-45d6-a3ff-690b11a47271",
							"protocol": "http",
							"host": [
								"localhost"
							],
							"port": "3000",
							"path": [
								"api",
								"transaction",
								"65352bb2-a3a4-45d6-a3ff-690b11a47271"
							]
						}
					},
					"response": []
				},
				{
					"name": "Get all transactions",
					"request": {
						"method": "GET",
						"header": [
							{
								"key": "Authorization",
								"value": "eyJhbGciOiJIUzI1NiIsInR5cCI6IkpXVCJ9.eyJlbWFpbCI6InRlc3RAdGVzdC5kZSIsImlkIjoiYjNhOGY3OTQtZjE3Zi00N2VlLWFkMjAtOWUzMTM0YWNkODI3IiwibmFtZSI6IkRhbmllbCIsImlhdCI6MTU4ODYyODQ0NiwiZXhwIjoxNTg4NjMyMDQ2fQ.wHqAwy9cRIqi66iO0QzVU3qDArHdDOUCuv7pc-h4plU",
								"type": "text"
							}
						],
						"url": {
							"raw": "http://localhost:3000/api/transaction",
							"protocol": "http",
							"host": [
								"localhost"
							],
							"port": "3000",
							"path": [
								"api",
								"transaction"
							]
						}
					},
					"response": []
				},
				{
					"name": "Create new transaction",
					"request": {
						"method": "POST",
						"header": [
							{
								"key": "Authorization",
								"value": "eyJhbGciOiJIUzI1NiIsInR5cCI6IkpXVCJ9.eyJlbWFpbCI6InRlc3RAdGVzdC5kZSIsImlkIjoiYjNhOGY3OTQtZjE3Zi00N2VlLWFkMjAtOWUzMTM0YWNkODI3IiwibmFtZSI6IkRhbmllbCIsImlhdCI6MTU4ODYyODQ0NiwiZXhwIjoxNTg4NjMyMDQ2fQ.wHqAwy9cRIqi66iO0QzVU3qDArHdDOUCuv7pc-h4plU",
								"type": "text"
							}
						],
						"body": {
							"mode": "raw",
							"raw": "{\n\t\"name\": \"Gemüse\",\n\t\"value\": \"300\",\n\t\"description\": \"So yummy\",\n\t\"type\": \"expense\",\n\t\"tags\": [\"Lebensmittel\", \"Elektronik\"]\n}",
							"options": {
								"raw": {
									"language": "json"
								}
							}
						},
						"url": {
							"raw": "http://localhost:3000/api/transaction",
							"protocol": "http",
							"host": [
								"localhost"
							],
							"port": "3000",
							"path": [
								"api",
								"transaction"
							]
						}
					},
					"response": []
				},
				{
					"name": "Patch transaction",
					"request": {
						"method": "PATCH",
						"header": [
							{
								"key": "Authorization",
								"value": "eyJhbGciOiJIUzI1NiIsInR5cCI6IkpXVCJ9.eyJlbWFpbCI6InRlc3RAdGVzdC5kZSIsImlkIjoiYjNhOGY3OTQtZjE3Zi00N2VlLWFkMjAtOWUzMTM0YWNkODI3IiwibmFtZSI6IkRhbmllbCIsImlhdCI6MTU4ODYyNzkwNSwiZXhwIjoxNTg4NjMxNTA1fQ.u2UwfZ4lfe5aPhJzp4JprZcHF6XgAvU5JIXNZtFDlrA",
								"type": "text"
							}
						],
						"body": {
							"mode": "raw",
							"raw": "{\n\t\"name\": \"GANZ NEU\",\n\t\"value\": \"2000000\"\n}",
							"options": {
								"raw": {
									"language": "json"
								}
							}
						},
						"url": {
							"raw": "http://localhost:3000/transaction/159bc8b5-f0c3-4584-8580-746f298b2458",
							"protocol": "http",
							"host": [
								"localhost"
							],
							"port": "3000",
							"path": [
								"transaction",
								"159bc8b5-f0c3-4584-8580-746f298b2458"
							]
						}
					},
					"response": []
				}
			],
			"protocolProfileBehavior": {}
		},
		{
			"name": "Tags",
			"item": [
				{
					"name": "Get all tags",
					"request": {
						"method": "GET",
						"header": [
							{
								"key": "Authorization",
								"type": "text",
								"value": "eyJhbGciOiJIUzI1NiIsInR5cCI6IkpXVCJ9.eyJlbWFpbCI6InRlc3RAdGVzdC5kZSIsImlkIjoiYjNhOGY3OTQtZjE3Zi00N2VlLWFkMjAtOWUzMTM0YWNkODI3IiwibmFtZSI6IkRhbmllbCIsImlhdCI6MTU4ODYyODQ0NiwiZXhwIjoxNTg4NjMyMDQ2fQ.wHqAwy9cRIqi66iO0QzVU3qDArHdDOUCuv7pc-h4plU"
							}
						],
						"url": {
							"raw": "http://localhost:3000/api/tag",
							"protocol": "http",
							"host": [
								"localhost"
							],
							"port": "3000",
							"path": [
								"api",
								"tag"
							]
						}
					},
					"response": []
				}
			],
			"protocolProfileBehavior": {}
		},
		{
			"name": "User",
			"item": [
				{
					"name": "Register user",
					"request": {
						"method": "POST",
						"header": [],
						"body": {
							"mode": "raw",
							"raw": "{\n\t\"name\": \"Daniel\",\n\t\"email\": \"test@test.de\",\n\t\"password\": \"hallo\"\n}",
							"options": {
								"raw": {
									"language": "json"
								}
							}
						},
						"url": {
							"raw": "http://localhost:3000/api/user",
							"protocol": "http",
							"host": [
								"localhost"
							],
							"port": "3000",
							"path": [
								"api",
								"user"
							]
						}
					},
					"response": []
				},
				{
					"name": "Login route",
					"request": {
						"method": "POST",
						"header": [],
						"body": {
							"mode": "raw",
							"raw": "{\n\t\"email\": \"test@test.de\",\n\t\"password\": \"hallo\"\n}",
							"options": {
								"raw": {
									"language": "json"
								}
							}
						},
						"url": {
							"raw": "http://localhost:3000/api/user/token",
							"protocol": "http",
							"host": [
								"localhost"
							],
							"port": "3000",
							"path": [
								"api",
								"user",
								"token"
							]
						}
					},
					"response": []
				},
				{
					"name": "Get user from external api",
					"request": {
						"method": "GET",
						"header": [],
						"url": {
							"raw": "http://localhost:3000/api/user",
							"protocol": "http",
							"host": [
								"localhost"
							],
							"port": "3000",
							"path": [
								"api",
								"user"
							]
						}
					},
					"response": []
				}
			],
			"protocolProfileBehavior": {}
		},
		{
			"name": "Welcome",
			"request": {
				"method": "GET",
				"header": [],
				"url": {
					"raw": "http://localhost:3000/api",
					"protocol": "http",
					"host": [
						"localhost"
					],
					"port": "3000",
					"path": [
						"api"
					]
				}
			},
			"response": []
		}
	],
	"protocolProfileBehavior": {}
}